\relax 
\abx@aux@sortscheme{nty}
\abx@aux@refcontext{nty/global/}
\@writefile{toc}{\boolfalse {citerequest}\boolfalse {citetracker}\boolfalse {pagetracker}\boolfalse {backtracker}\relax }
\@writefile{lof}{\boolfalse {citerequest}\boolfalse {citetracker}\boolfalse {pagetracker}\boolfalse {backtracker}\relax }
\@writefile{lot}{\boolfalse {citerequest}\boolfalse {citetracker}\boolfalse {pagetracker}\boolfalse {backtracker}\relax }
\select@language{english}
\@writefile{toc}{\select@language{english}}
\@writefile{lof}{\select@language{english}}
\@writefile{lot}{\select@language{english}}
\abx@aux@cite{lidar-saturate}
\abx@aux@segm{0}{0}{lidar-saturate}
\@writefile{toc}{\contentsline {chapter}{\numberline {1}Introduction}{1}}
\@writefile{lof}{\addvspace {10\p@ }}
\@writefile{lot}{\addvspace {10\p@ }}
\@writefile{toc}{\contentsline {section}{\numberline {1.1}Motivation}{1}}
\@writefile{toc}{\contentsline {paragraph}{}{1}}
\@writefile{toc}{\contentsline {paragraph}{}{1}}
\@writefile{toc}{\contentsline {paragraph}{}{1}}
\@writefile{toc}{\contentsline {section}{\numberline {1.2}Our Approach}{1}}
\abx@aux@cite{Capobianco2017}
\abx@aux@segm{0}{0}{Capobianco2017}
\abx@aux@segm{0}{0}{Capobianco2017}
\abx@aux@segm{0}{0}{Capobianco2017}
\abx@aux@segm{0}{0}{Capobianco2017}
\abx@aux@segm{0}{0}{Capobianco2017}
\abx@aux@segm{0}{0}{Capobianco2017}
\abx@aux@segm{0}{0}{Capobianco2017}
\@writefile{lof}{\contentsline {figure}{\numberline {1.1}{\ignorespaces Contrasting a high resolution 3D Laser Pointcloud (left) versus a 2.5D radar scan of the same location (right) as would be seen in an aerial view. Notice that it is difficult for us to hand label the radar scene while the Laser pointcloud is richer in structure hence easier.\relax }}{2}}
\providecommand*\caption@xref[2]{\@setref\relax\@undefined{#1}}
\newlabel{radar-lidar-img}{{1.1}{2}}
\@writefile{toc}{\contentsline {paragraph}{}{2}}
\@writefile{toc}{\contentsline {section}{\numberline {1.3}Literature Review}{2}}
\@writefile{toc}{\contentsline {paragraph}{}{2}}
\abx@aux@cite{Lombacher2016}
\abx@aux@segm{0}{0}{Lombacher2016}
\abx@aux@segm{0}{0}{Lombacher2016}
\abx@aux@segm{0}{0}{Lombacher2016}
\abx@aux@cite{alexnet}
\abx@aux@segm{0}{0}{alexnet}
\newlabel{doppler}{{1.2a}{3}}
\newlabel{sub@doppler}{{a}{3}}
\newlabel{STFT-CNN}{{1.2b}{3}}
\newlabel{sub@STFT-CNN}{{b}{3}}
\@writefile{lof}{\contentsline {figure}{\numberline {1.2}{\ignorespaces Illustration of the input image used to predict vehicle categories and the CNN used for this classification task by \cite {Capobianco2017}.\relax }}{3}}
\@writefile{toc}{\contentsline {paragraph}{}{3}}
\@writefile{toc}{\contentsline {paragraph}{}{3}}
\@writefile{toc}{\contentsline {paragraph}{}{3}}
\abx@aux@cite{rcnn}
\abx@aux@segm{0}{0}{rcnn}
\abx@aux@segm{0}{0}{rcnn}
\abx@aux@cite{faster-rcnn}
\abx@aux@segm{0}{0}{faster-rcnn}
\abx@aux@segm{0}{0}{faster-rcnn}
\@writefile{lof}{\contentsline {figure}{\numberline {1.3}{\ignorespaces The hand-labelled training patches for various object categories used by Lombacher et al.\cite {Lombacher2016} depicted along with the number of samples for each category. The availability of few samples is due to reliance on hand-labelling.\relax }}{4}}
\newlabel{daimler}{{1.3}{4}}
\@writefile{toc}{\contentsline {paragraph}{}{4}}
\@writefile{toc}{\contentsline {paragraph}{}{4}}
\newlabel{sec:detection}{{1.3}{4}}
\abx@aux@segm{0}{0}{rcnn}
\abx@aux@segm{0}{0}{faster-rcnn}
\abx@aux@cite{yolo}
\abx@aux@segm{0}{0}{yolo}
\abx@aux@segm{0}{0}{yolo}
\abx@aux@segm{0}{0}{yolo}
\abx@aux@segm{0}{0}{yolo}
\abx@aux@segm{0}{0}{yolo}
\newlabel{rcnn}{{1.4a}{5}}
\newlabel{sub@rcnn}{{a}{5}}
\newlabel{f-rcnn}{{1.4b}{5}}
\newlabel{sub@f-rcnn}{{b}{5}}
\@writefile{lof}{\contentsline {figure}{\numberline {1.4}{\ignorespaces R-CNN and Faster RCNN paradigms illustrated.\relax }}{5}}
\@writefile{toc}{\contentsline {subsubsection}{R-CNN}{5}}
\@writefile{toc}{\contentsline {subsubsection}{YOLO}{5}}
\abx@aux@cite{viola-jones}
\abx@aux@segm{0}{0}{viola-jones}
\abx@aux@cite{rob-4yp}
\abx@aux@segm{0}{0}{rob-4yp}
\newlabel{fig:yolo-net}{{1.5b}{6}}
\newlabel{sub@fig:yolo-net}{{b}{6}}
\@writefile{lof}{\contentsline {figure}{\numberline {1.5}{\ignorespaces Illustrations of YOLO approach of splitting an image into a grid and YOLO's architecture shown.\relax }}{6}}
\@writefile{toc}{\contentsline {subsubsection}{Sliding-Window}{6}}
\@writefile{toc}{\contentsline {section}{\numberline {1.4}Project Aims and Contributions}{6}}
\abx@aux@cite{radar-Book}
\abx@aux@segm{0}{0}{radar-Book}
\abx@aux@segm{0}{0}{radar-Book}
\abx@aux@segm{0}{0}{radar-Book}
\abx@aux@segm{0}{0}{radar-Book}
\abx@aux@segm{0}{0}{radar-Book}
\abx@aux@segm{0}{0}{radar-Book}
\@writefile{toc}{\contentsline {chapter}{\numberline {2}Data Acquisition and Background}{8}}
\@writefile{lof}{\addvspace {10\p@ }}
\@writefile{lot}{\addvspace {10\p@ }}
\@writefile{toc}{\contentsline {section}{\numberline {2.1}Working of RADAR}{8}}
\@writefile{toc}{\contentsline {paragraph}{}{8}}
\newlabel{beat}{{2.1}{8}}
\abx@aux@segm{0}{0}{radar-Book}
\abx@aux@segm{0}{0}{radar-Book}
\@writefile{lof}{\contentsline {figure}{\numberline {2.1}{\ignorespaces The oscillator generates a linearly increasing frequency signal over a time-period t \cite {radar-Book}. At the receiver, some part of the transmitted signal is mixed with the received signal and then filtered and amplified to retrieve the beat signal as shown in eq.\ref  {beat}; For every azimuth, the beat signal is collected and FFT is performed to then obtain a power spectrum. The amplitude corresponding to each frequency in this spectrum is proportional to the Time of Flight (ToF) to an object. The final output is intensity values indexed by range for every azimuth as can be seen in fig. \ref  {ascope}\relax }}{9}}
\newlabel{schematic}{{2.1}{9}}
\newlabel{radar-diagram}{{2.2a}{9}}
\newlabel{sub@radar-diagram}{{a}{9}}
\newlabel{ascope}{{2.2b}{9}}
\newlabel{sub@ascope}{{b}{9}}
\@writefile{lof}{\contentsline {figure}{\numberline {2.2}{\ignorespaces Schematic of the transmitted and received signal along with the beat signal obtained from them shown on the left. The beat signal frequency and amplitude contain information about the range and intensity of objects. This information can be plotted as shown in the figure on the right.\relax }}{9}}
\@writefile{toc}{\contentsline {paragraph}{}{9}}
\abx@aux@segm{0}{0}{radar-Book}
\newlabel{real-scatter}{{2.3b}{10}}
\newlabel{sub@real-scatter}{{b}{10}}
\@writefile{lof}{\contentsline {figure}{\numberline {2.3}{\ignorespaces Our raw radar signal is a scatter plot of intensities because for every range bin in each azimuth, the radar returns an intensity value.\relax }}{10}}
\@writefile{toc}{\contentsline {paragraph}{}{10}}
\abx@aux@cite{PELICAN}
\abx@aux@segm{0}{0}{PELICAN}
\abx@aux@segm{0}{0}{PELICAN}
\abx@aux@segm{0}{0}{rob-4yp}
\abx@aux@segm{0}{0}{rob-4yp}
\abx@aux@cite{navtech}
\abx@aux@segm{0}{0}{navtech}
\@writefile{toc}{\contentsline {section}{\numberline {2.2}RADAR sensor}{11}}
\newlabel{GEM}{{2.4b}{11}}
\newlabel{sub@GEM}{{b}{11}}
\@writefile{lof}{\contentsline {figure}{\numberline {2.4}{\ignorespaces Schematic showing what is meant by azimuth and elevation of the radar sensor along with how the range and direction of a target object are obtained. On the right, we show the actual vehicle that was used as per this setup.\relax }}{11}}
\@writefile{toc}{\contentsline {paragraph}{}{11}}
\@writefile{toc}{\contentsline {section}{\numberline {2.3}LiDAR sensor}{11}}
\abx@aux@cite{moos}
\abx@aux@segm{0}{0}{moos}
\abx@aux@cite{vote3deep}
\abx@aux@segm{0}{0}{vote3deep}
\abx@aux@segm{0}{0}{vote3deep}
\abx@aux@segm{0}{0}{vote3deep}
\abx@aux@segm{0}{0}{vote3deep}
\abx@aux@segm{0}{0}{vote3deep}
\@writefile{lof}{\contentsline {figure}{\numberline {2.5}{\ignorespaces Illustrations of the raw radar signal along with the processed image that we choose to use for our project.\relax }}{12}}
\@writefile{toc}{\contentsline {paragraph}{}{12}}
\@writefile{toc}{\contentsline {paragraph}{}{12}}
\@writefile{lof}{\contentsline {figure}{\numberline {2.6}{\ignorespaces Laser pointcloud and detections made by Vote3Deep as visualised in the native visualiser. In this scene all the cars are detected.\relax }}{13}}
\newlabel{v3deep-vote}{{2.7a}{13}}
\newlabel{sub@v3deep-vote}{{a}{13}}
\@writefile{lof}{\contentsline {figure}{\numberline {2.7}{\ignorespaces Illustrations of Voting as a convolution on sparse data and the architecture used by the Vote3deep detector.\relax }}{13}}
\@writefile{toc}{\contentsline {paragraph}{}{13}}
\@writefile{toc}{\contentsline {paragraph}{}{13}}
\@writefile{toc}{\contentsline {paragraph}{}{14}}
\@writefile{toc}{\contentsline {section}{\numberline {2.4}Datasets}{14}}
\newlabel{datasets}{{2.4}{14}}
\newlabel{table-locations}{{2.8a}{14}}
\newlabel{sub@table-locations}{{a}{14}}
\newlabel{fig:data-locations}{{2.8b}{14}}
\newlabel{sub@fig:data-locations}{{b}{14}}
\@writefile{lof}{\contentsline {figure}{\numberline {2.8}{\ignorespaces Locations and details about number of positive car samples and negatives recorded by our RADAR and laser are shown.\relax }}{14}}
\abx@aux@cite{geron}
\abx@aux@segm{0}{0}{geron}
\@writefile{toc}{\contentsline {section}{\numberline {2.5}Evaluation Metrics}{15}}
\@writefile{lof}{\contentsline {figure}{\numberline {2.9}{\ignorespaces Each row in the confusion matrix represents the Actual Class while each column the predicted class.\relax }}{15}}
\@writefile{toc}{\contentsline {paragraph}{}{15}}
\abx@aux@segm{0}{0}{geron}
\@writefile{toc}{\contentsline {paragraph}{}{16}}
\@writefile{toc}{\contentsline {paragraph}{}{16}}
\@writefile{lof}{\contentsline {figure}{\numberline {2.10}{\ignorespaces Illustration of how precision and recall individually vary with classifier's threshold. We can even vary Recall by implicitly adjusting the threshold to get various values of Precision as shown on the right.\relax }}{16}}
\newlabel{fig:PR}{{2.10}{16}}
\@writefile{toc}{\contentsline {paragraph}{}{16}}
\abx@aux@cite{Dollar}
\abx@aux@segm{0}{0}{Dollar}
\@writefile{toc}{\contentsline {paragraph}{}{17}}
\@writefile{toc}{\contentsline {paragraph}{}{17}}
\abx@aux@segm{0}{0}{rob-4yp}
\@writefile{toc}{\contentsline {chapter}{\numberline {3}SVM Based RADAR Classification}{18}}
\@writefile{lof}{\addvspace {10\p@ }}
\@writefile{lot}{\addvspace {10\p@ }}
\@writefile{toc}{\contentsline {section}{\numberline {3.1}Motivation}{18}}
\@writefile{toc}{\contentsline {paragraph}{}{18}}
\@writefile{toc}{\contentsline {section}{\numberline {3.2}Theory}{18}}
\abx@aux@cite{scikit-learn}
\abx@aux@segm{0}{0}{scikit-learn}
\@writefile{toc}{\contentsline {subsubsection}{Hyper-parameter tuning via Cross Validation}{19}}
\@writefile{toc}{\contentsline {paragraph}{}{19}}
\@writefile{toc}{\contentsline {section}{\numberline {3.3}Experiments}{20}}
\@writefile{toc}{\contentsline {subsection}{\numberline {3.3.1}Aligned car patches}{20}}
\newlabel{aligned-svm-expt}{{3.3.1}{20}}
\@writefile{toc}{\contentsline {paragraph}{}{20}}
\@writefile{lof}{\contentsline {figure}{\numberline {3.1}{\ignorespaces A box-whisker plot showing the spread of 5 NLL scores obtained for various C values tried using line-search. The median was taken as a summary with which to compare the C values. Lower the NLL, the better.\relax }}{21}}
\newlabel{box-whisk}{{3.1}{21}}
\@writefile{lof}{\contentsline {figure}{\numberline {3.2}{\ignorespaces Summary of Precision, Recall, $F_{1}$ score and the confusion matrix of the SVM trained and tested on aligned data shown here for a probability threshold of 0.5 (converted using Platt scaling).\relax }}{21}}
\newlabel{svm-aligned-table}{{3.2}{21}}
\@writefile{toc}{\contentsline {subsection}{\numberline {3.3.2}Randomly oriented car patches}{21}}
\newlabel{data-aug}{{3.3.2}{21}}
\abx@aux@cite{VGG}
\abx@aux@segm{0}{0}{VGG}
\@writefile{lof}{\contentsline {figure}{\numberline {3.3}{\ignorespaces Histogram showing distribution of angles at which (one of the) datasets was augmented.\relax }}{22}}
\newlabel{fig:hist-aug}{{3.3}{22}}
\@writefile{lof}{\contentsline {figure}{\numberline {3.4}{\ignorespaces Summary of Precision, Recall, $F_{1}$ score and the confusion matrix of the SVM trained and tested on augmented data shown here for a probability threshold of 0.5\relax }}{22}}
\@writefile{toc}{\contentsline {subsection}{\numberline {3.3.3}Hard Negative Mining}{22}}
\@writefile{toc}{\contentsline {paragraph}{}{22}}
\@writefile{lof}{\contentsline {figure}{\numberline {3.5}{\ignorespaces PR curves comparing SVM performance on rotated patches and aligned patches for various thresholds.\relax }}{23}}
\@writefile{lof}{\contentsline {figure}{\numberline {3.6}{\ignorespaces A diagrammatic way of showing how HNM curates a training set with key negatives from a larger set of all negative instances available.\relax }}{23}}
\newlabel{HNM-diag}{{3.6}{23}}
\@writefile{toc}{\contentsline {paragraph}{}{23}}
\@writefile{toc}{\contentsline {paragraph}{}{23}}
\@writefile{lof}{\contentsline {figure}{\numberline {3.7}{\ignorespaces HNM results and a hypothesis for why we observed this are illustrated above.\relax }}{24}}
\@writefile{toc}{\contentsline {paragraph}{}{24}}
\@writefile{toc}{\contentsline {paragraph}{}{24}}
\@writefile{toc}{\contentsline {paragraph}{}{24}}
\abx@aux@segm{0}{0}{rob-4yp}
\@writefile{toc}{\contentsline {subsection}{\numberline {3.3.4}Denoising by Static Thresholding}{25}}
\@writefile{lof}{\contentsline {figure}{\numberline {3.8}{\ignorespaces PR curves for thresholded and original patches.\relax }}{25}}
\newlabel{PR-Thresh}{{3.8}{25}}
\@writefile{toc}{\contentsline {paragraph}{}{25}}
\@writefile{toc}{\contentsline {paragraph}{}{25}}
\@writefile{toc}{\contentsline {section}{\numberline {3.4}Success and Failures cases}{25}}
\@writefile{toc}{\contentsline {paragraph}{}{25}}
\newlabel{visualise-svm}{{3.4}{25}}
\@writefile{toc}{\contentsline {paragraph}{}{26}}
\@writefile{lof}{\contentsline {figure}{\numberline {3.9}{\ignorespaces Easy True Positives. There are 7,316 in total.\relax }}{26}}
\@writefile{lof}{\contentsline {figure}{\numberline {3.10}{\ignorespaces Hard True Positives. There are 192 in total.\relax }}{26}}
\@writefile{lof}{\contentsline {figure}{\numberline {3.11}{\ignorespaces Easy True Negatives. There are 7,201 in total.\relax }}{26}}
\@writefile{lof}{\contentsline {figure}{\numberline {3.12}{\ignorespaces Hard True Negatives. There are 215 in total.\relax }}{26}}
\newlabel{fig:visualise}{{3.12}{26}}
\@writefile{toc}{\contentsline {paragraph}{}{26}}
\@writefile{toc}{\contentsline {paragraph}{}{26}}
\@writefile{lof}{\contentsline {figure}{\numberline {3.13}{\ignorespaces Chosen Hard False Negatives. There are 323 in total. Note that they visually resemble true negatives.\relax }}{27}}
\@writefile{lof}{\contentsline {figure}{\numberline {3.14}{\ignorespaces Chosen Hard False Positives. There are 285 in total. Note that they visually resemble true positives.\relax }}{27}}
\newlabel{vis-misclassification}{{3.14}{27}}
\@writefile{toc}{\contentsline {section}{\numberline {3.5}Conclusion}{27}}
\@writefile{toc}{\contentsline {paragraph}{}{27}}
\@writefile{toc}{\contentsline {paragraph}{}{27}}
\@writefile{toc}{\contentsline {chapter}{\numberline {4}CNN Based RADAR Classification}{28}}
\@writefile{lof}{\addvspace {10\p@ }}
\@writefile{lot}{\addvspace {10\p@ }}
\newlabel{deep-sec}{{4}{28}}
\@writefile{toc}{\contentsline {section}{\numberline {4.1}Motivation}{28}}
\@writefile{toc}{\contentsline {paragraph}{}{28}}
\@writefile{toc}{\contentsline {section}{\numberline {4.2}Theory}{28}}
\abx@aux@cite{relu}
\abx@aux@segm{0}{0}{relu}
\@writefile{toc}{\contentsline {subsection}{\numberline {4.2.1}Encoder}{29}}
\@writefile{toc}{\contentsline {paragraph}{}{29}}
\newlabel{encoder-sec}{{4.2.1}{29}}
\@writefile{toc}{\contentsline {subsection}{\numberline {4.2.2}Loss}{29}}
\abx@aux@cite{deep-learning-book}
\abx@aux@segm{0}{0}{deep-learning-book}
\@writefile{toc}{\contentsline {subsection}{\numberline {4.2.3}Learning by Optimisation}{30}}
\@writefile{toc}{\contentsline {subsection}{\numberline {4.2.4}Back Propagation}{30}}
\abx@aux@segm{0}{0}{deep-learning-book}
\abx@aux@cite{deconv1}
\abx@aux@segm{0}{0}{deconv1}
\abx@aux@segm{0}{0}{deconv1}
\abx@aux@cite{deconv3}
\abx@aux@segm{0}{0}{deconv3}
\abx@aux@segm{0}{0}{deconv3}
\abx@aux@segm{0}{0}{deconv3}
\abx@aux@cite{deconv2}
\abx@aux@segm{0}{0}{deconv2}
\abx@aux@cite{keras-us}
\abx@aux@segm{0}{0}{keras-us}
\@writefile{toc}{\contentsline {subsection}{\numberline {4.2.5}Representation learning}{31}}
\@writefile{toc}{\contentsline {subsection}{\numberline {4.2.6}Autoencoder}{31}}
\@writefile{lof}{\contentsline {figure}{\numberline {4.1}{\ignorespaces Our undercomplete-autoencoder architecture showing the Encoder and the Decoder. The converging lines in conv2 layer show the shrinking action of the encoder while the diverging lines in conv5 show the enlarging action of the decoder.\relax }}{31}}
\newlabel{aec-arch}{{4.1}{31}}
\@writefile{toc}{\contentsline {subsubsection}{Decoder}{31}}
\newlabel{CT}{{4.2.6}{31}}
\abx@aux@cite{keras-losses}
\abx@aux@segm{0}{0}{keras-losses}
\abx@aux@cite{lenet-5}
\abx@aux@segm{0}{0}{lenet-5}
\abx@aux@segm{0}{0}{lenet-5}
\abx@aux@segm{0}{0}{lenet-5}
\newlabel{convt}{{4.2a}{32}}
\newlabel{sub@convt}{{a}{32}}
\@writefile{lof}{\contentsline {figure}{\numberline {4.2}{\ignorespaces The presence of checkerboard pattern was observed in image reconstructions if the convolution-transpose operator was used. This motivated the use of convolution followed by upsampling.\relax }}{32}}
\newlabel{check}{{4.2}{32}}
\@writefile{toc}{\contentsline {subsubsection}{Loss}{32}}
\@writefile{toc}{\contentsline {section}{\numberline {4.3}Classifier Architecture}{33}}
\@writefile{lof}{\contentsline {figure}{\numberline {4.3}{\ignorespaces Our architecture is inspired from LeNet-5 \cite {lenet-5} because of the resemblance in the data dimensions and appearance of our grayscale radar car patches with grayscale low-res handwritten digits. In addition, the speed and simplicity due to fewer parameters was appealing. Our architecture is illustrated and summarised above.\relax }}{33}}
\@writefile{lof}{\contentsline {figure}{\numberline {4.4}{\ignorespaces Table summarising the calculation of the receptive field of the encoder.\relax }}{34}}
\@writefile{toc}{\contentsline {section}{\numberline {4.4}Experiments}{34}}
\@writefile{toc}{\contentsline {subsection}{\numberline {4.4.1}Aligned Patches}{34}}
\abx@aux@cite{adadelta}
\abx@aux@segm{0}{0}{adadelta}
\@writefile{lof}{\contentsline {figure}{\numberline {4.5}{\ignorespaces These plots were monitored to ensure there were no anomalies while training as well as later to verify that no significant overfitting has occured.\relax }}{35}}
\newlabel{acc-loss}{{4.5}{35}}
\newlabel{aligned-sec}{{4.4.1}{35}}
\abx@aux@cite{spatial-transformer}
\abx@aux@segm{0}{0}{spatial-transformer}
\@writefile{lof}{\contentsline {figure}{\numberline {4.6}{\ignorespaces Summary of Precision, Recall, $F_{1}$ score and the confusion matrix of the CNN trained and tested on aligned data shown here for a probability threshold of 0.5.\relax }}{36}}
\@writefile{toc}{\contentsline {subsection}{\numberline {4.4.2}Randomly oriented patches}{36}}
\@writefile{toc}{\contentsline {subsubsection}{Results}{36}}
\abx@aux@cite{unsupervised-pretraining}
\abx@aux@segm{0}{0}{unsupervised-pretraining}
\abx@aux@segm{0}{0}{deep-learning-book}
\abx@aux@segm{0}{0}{deep-learning-book}
\abx@aux@segm{0}{0}{deep-learning-book}
\newlabel{PR-CNNs}{{4.7a}{37}}
\newlabel{sub@PR-CNNs}{{a}{37}}
\@writefile{lof}{\contentsline {figure}{\numberline {4.7}{\ignorespaces Results of the CNN on the test set are summarised - the table shows for the rotated data while the PR curve is a comparison of aligned and rotated data.\relax }}{37}}
\@writefile{toc}{\contentsline {subsection}{\numberline {4.4.3}Unsupervised Pre-Training}{37}}
\@writefile{toc}{\contentsline {paragraph}{}{37}}
\abx@aux@segm{0}{0}{unsupervised-pretraining}
\@writefile{lof}{\contentsline {figure}{\numberline {4.8}{\ignorespaces Some randomly chosen unlabelled samples being reconstructed using the undercomplete AEC layer wise.\relax }}{38}}
\newlabel{reconstruction}{{4.8}{38}}
\@writefile{loa}{\contentsline {algorithm}{\numberline {1}{\ignorespaces Greedy Layer Wise Pre-training algorithm\cite {deep-learning-book}\relax }}{38}}
\newlabel{algo}{{1}{38}}
\@writefile{toc}{\contentsline {subsection}{\numberline {4.4.4}Supervised Fine-Tuning}{38}}
\newlabel{us-pret}{{4.4.4}{38}}
\@writefile{toc}{\contentsline {paragraph}{}{38}}
\@writefile{lof}{\contentsline {figure}{\numberline {4.9}{\ignorespaces Comparing performance of classifier with and without pretraining; The former consistently does better.\relax }}{39}}
\@writefile{toc}{\contentsline {paragraph}{}{39}}
\newlabel{why-pretraining-works}{{4.4.4}{39}}
\@writefile{lof}{\contentsline {figure}{\numberline {4.10}{\ignorespaces Comparing the greedy approach to pre-training and the one where all layers are simultaneously trained; they are nearly identical.\relax }}{39}}
\newlabel{fig:PR-us}{{4.10}{39}}
\@writefile{toc}{\contentsline {subsection}{\numberline {4.4.5}Regression for predicting orientation of car}{40}}
\@writefile{lof}{\contentsline {figure}{\numberline {4.11}{\ignorespaces Histogram of the absolute error in predicted orientation of cars in degrees with a bin size = 10.\relax }}{40}}
\newlabel{hist-regress}{{4.11}{40}}
\@writefile{toc}{\contentsline {section}{\numberline {4.5}SVM classifier Vs. CNN classifier}{40}}
\@writefile{toc}{\contentsline {paragraph}{}{40}}
\@writefile{lof}{\contentsline {figure}{\numberline {4.12}{\ignorespaces PR curves of SVM and CNN are juxtaposed here for cases of both aligned data (left) and rotated data (right). The CNN outperforms the SVM for each task.\relax }}{41}}
\@writefile{toc}{\contentsline {section}{\numberline {4.6}Conclusion}{41}}
\@writefile{toc}{\contentsline {chapter}{\numberline {5}Object Detection in a RADAR scan}{42}}
\@writefile{lof}{\addvspace {10\p@ }}
\@writefile{lot}{\addvspace {10\p@ }}
\newlabel{ch:detection}{{5}{42}}
\@writefile{toc}{\contentsline {section}{\numberline {5.1}Motivation}{42}}
\@writefile{toc}{\contentsline {subsection}{\numberline {5.1.1}Sliding window}{42}}
\@writefile{toc}{\contentsline {paragraph}{}{42}}
\@writefile{toc}{\contentsline {paragraph}{}{42}}
\@writefile{lof}{\contentsline {figure}{\numberline {5.1}{\ignorespaces The pre-filtered overlapping detections illustrated in contrast to after NMS filtering.\relax }}{43}}
\@writefile{toc}{\contentsline {subsection}{\numberline {5.1.2}Non-Maximum Suppression}{43}}
\@writefile{toc}{\contentsline {subsection}{\numberline {5.1.3}Hand Labelled Test Set}{43}}
\@writefile{toc}{\contentsline {paragraph}{}{43}}
\@writefile{toc}{\contentsline {subsection}{\numberline {5.1.4}Visualising Detections Radar}{44}}
\newlabel{satellite}{{5.2a}{44}}
\newlabel{sub@satellite}{{a}{44}}
\@writefile{lof}{\contentsline {figure}{\numberline {5.3}{\ignorespaces 4 consectutive Radar scans from the test set are displayed with the detections made at a threshold 0.9. Green boxes are those detections that could be corroborated with the manually labelled dataset.\relax }}{45}}
\newlabel{detection-vis}{{5.3}{45}}
\@writefile{toc}{\contentsline {paragraph}{}{45}}
\@writefile{toc}{\contentsline {section}{\numberline {5.2}Evaluating Detection}{46}}
\@writefile{lof}{\contentsline {figure}{\numberline {5.4}{\ignorespaces Miss Rate vs FPPI showing detector performance averaged over 90 frames.\relax }}{46}}
\newlabel{fppi-miss}{{5.4}{46}}
\@writefile{toc}{\contentsline {paragraph}{}{46}}
\@writefile{toc}{\contentsline {subsection}{\numberline {5.2.1}Analysis of detection visuals}{46}}
\@writefile{toc}{\contentsline {subsection}{\numberline {5.2.2}Time performance}{47}}
\@writefile{toc}{\contentsline {paragraph}{}{47}}
\@writefile{toc}{\contentsline {section}{\numberline {5.3}Conclusion}{47}}
\@writefile{toc}{\contentsline {paragraph}{}{47}}
\@writefile{toc}{\contentsline {paragraph}{}{47}}
\@writefile{toc}{\contentsline {paragraph}{}{48}}
\@writefile{toc}{\contentsline {paragraph}{}{48}}
\@writefile{toc}{\contentsline {paragraph}{}{48}}
\abx@aux@refcontextdefaultsdone
\abx@aux@defaultrefcontext{0}{radar-Book}{nty/global/}
\abx@aux@defaultrefcontext{0}{Capobianco2017}{nty/global/}
\abx@aux@defaultrefcontext{0}{navtech}{nty/global/}
\abx@aux@defaultrefcontext{0}{deconv1}{nty/global/}
\abx@aux@defaultrefcontext{0}{vote3deep}{nty/global/}
\abx@aux@defaultrefcontext{0}{unsupervised-pretraining}{nty/global/}
\abx@aux@defaultrefcontext{0}{geron}{nty/global/}
\abx@aux@defaultrefcontext{0}{rcnn}{nty/global/}
\abx@aux@defaultrefcontext{0}{deep-learning-book}{nty/global/}
\abx@aux@defaultrefcontext{0}{spatial-transformer}{nty/global/}
\abx@aux@defaultrefcontext{0}{keras-us}{nty/global/}
\abx@aux@defaultrefcontext{0}{alexnet}{nty/global/}
\abx@aux@defaultrefcontext{0}{lenet-5}{nty/global/}
\abx@aux@defaultrefcontext{0}{Lombacher2016}{nty/global/}
\abx@aux@defaultrefcontext{0}{keras-losses}{nty/global/}
\abx@aux@defaultrefcontext{0}{moos}{nty/global/}
\abx@aux@defaultrefcontext{0}{relu}{nty/global/}
\abx@aux@defaultrefcontext{0}{VGG}{nty/global/}
\abx@aux@defaultrefcontext{0}{deconv3}{nty/global/}
\abx@aux@defaultrefcontext{0}{scikit-learn}{nty/global/}
\abx@aux@defaultrefcontext{0}{yolo}{nty/global/}
\abx@aux@defaultrefcontext{0}{faster-rcnn}{nty/global/}
\abx@aux@defaultrefcontext{0}{lidar-saturate}{nty/global/}
\abx@aux@defaultrefcontext{0}{PELICAN}{nty/global/}
\abx@aux@defaultrefcontext{0}{deconv2}{nty/global/}
\abx@aux@defaultrefcontext{0}{viola-jones}{nty/global/}
\abx@aux@defaultrefcontext{0}{rob-4yp}{nty/global/}
\abx@aux@defaultrefcontext{0}{Dollar}{nty/global/}
\abx@aux@defaultrefcontext{0}{adadelta}{nty/global/}
